[
  {
    "Semestre": 1,
    "Grupo": "Av",
    "Matricula": 42202879,
    "Nombre": "Jaramillo Arellano Kevin Arturo"
    
  },
  {
    "Semestre": 1,
    "Grupo": "Av",
    "Matricula": 42305075,
    "Nombre": "Adame Nuñez Jennifer Yatziry"
    
  },
  {
    "Semestre": 1,
    "Grupo": "Av",
    "Matricula": 42305079,
    "Nombre": "Aguiñaga Felix Jesus Santiago"
    
  },
  {
    "Semestre": 1,
    "Grupo": "Av",
    "Matricula": 20201457,
    "Nombre": "Araujo Sosa Josef Alfonso"
    
  },
  {
    "Semestre": 1,
    "Grupo": "Av",
    "Matricula": 42303079,
    "Nombre": "Calderon Maldonado Mariel Abigail"
    
  },
  {
    "Semestre": 1,
    "Grupo": "Av",
    "Matricula": 42305049,
    "Nombre": "Carrillo Del Real Camila Jocelyn"
    
  },
  {
    "Semestre": 1,
    "Grupo": "Av",
    "Matricula": 42305052,
    "Nombre": "Carrillo Melendez Maria Alejandra"
    
  },
  {
    "Semestre": 1,
    "Grupo": "Av",
    "Matricula": 42305069,
    "Nombre": "Castorena Esparza Jeimy Joselin"
    
  },
  {
    "Semestre": 1,
    "Grupo": "Av",
    "Matricula": 39203008,
    "Nombre": "Castorena Sosa Owen Dajem Quetzalcoatl"
    
  },
  {
    "Semestre": 1,
    "Grupo": "Av",
    "Matricula": 42303073,
    "Nombre": "Cervantes Campos Danna Jacqueline"
    
  },
  {
    "Semestre": 1,
    "Grupo": "Av",
    "Matricula": 42303057,
    "Nombre": "Chiu Cortes Neela Cecilia"
    
  },
  {
    "Semestre": 1,
    "Grupo": "Av",
    "Matricula": 42303139,
    "Nombre": "Davila Saucedo Miguel Angel"
    
  },
  {
    "Semestre": 1,
    "Grupo": "Av",
    "Matricula": 42301800,
    "Nombre": "De La Rosa Mendez Dorian Jaziel"
    
  },
  {
    "Semestre": 1,
    "Grupo": "Av",
    "Matricula": 42203197,
    "Nombre": "Delgado Medina Angel De Jesus"
    
  },
  {
    "Semestre": 1,
    "Grupo": "Av",
    "Matricula": 42304712,
    "Nombre": "Flores Hernandez Sergio Alexander"
    
  },
  {
    "Semestre": 1,
    "Grupo": "Av",
    "Matricula": 42302355,
    "Nombre": "Garcia Garcia Jacqueline Guadalupe"
    
  },
  {
    "Semestre": 1,
    "Grupo": "Av",
    "Matricula": 42302342,
    "Nombre": "Gaspar Cortez Erik Gael"
    
  },
  {
    "Semestre": 1,
    "Grupo": "Av",
    "Matricula": 42303206,
    "Nombre": "Gaytan Olvera Karla Vanessa"
    
  },
  {
    "Semestre": 1,
    "Grupo": "Av",
    "Matricula": 42302441,
    "Nombre": "Hernandez Castorena Juan Pablo"
    
  },
  {
    "Semestre": 1,
    "Grupo": "Av",
    "Matricula": 42302442,
    "Nombre": "Hernandez Castorena Ruben Eduardo"
    
  },
  {
    "Semestre": 1,
    "Grupo": "Av",
    "Matricula": 42303251,
    "Nombre": "Marinez Diaz Reyna Esmeralda"
  
  },
  {
    "Semestre": 1,
    "Grupo": "Av",
    "Matricula": 42303214,
    "Nombre": "Marquez Galindo Estrella Yamileth"
    
  },
  {
    "Semestre": 1,
    "Grupo": "Av",
    "Matricula": 42303213,
    "Nombre": "Marquez Castañon Ximena Guadalupe"
  
  },
  {
    "Semestre": 1,
    "Grupo": "Av",
    "Matricula": 42303224,
    "Nombre": "Martinez Flores Gael"
    
  },
  {
    "Semestre": 1,
    "Grupo": "Av",
    "Matricula": 42303250,
    "Nombre": "Medrano Nuñez Tayde Naomi"
    
  },
  {
    "Semestre": 1,
    "Grupo": "Av",
    "Matricula": 42304796,
    "Nombre": "Oliva Briseño Emmanuel"
    
  },
  {
    "Semestre": 1,
    "Grupo": "Av",
    "Matricula": 42304739,
    "Nombre": "Ortiz Rodriguez Jose Ricardo"
    
  },
  {
    "Semestre": 1,
    "Grupo": "Av",
    "Matricula": 42304740,
    "Nombre": "Ovalle Espinosa Irving Martin"
    
  },
  {
    "Semestre": 1,
    "Grupo": "Av",
    "Matricula": 42303180,
    "Nombre": "Quintero Estrella Miriam Abigail"
    
  },
  {
    "Semestre": 1,
    "Grupo": "Av",
    "Matricula": 42303882,
    "Nombre": "Rivera Botello Karla Jocelyn"
    
  },
  {
    "Semestre": 1,
    "Grupo": "Av",
    "Matricula": 42303858,
    "Nombre": "Robles Rosales Dylan Santiago"
    
  },
  {
    "Semestre": 1,
    "Grupo": "Av",
    "Matricula": 42304758,
    "Nombre": "Ruelas Rosales David Martin Alonso"
    
  },
  {
    "Semestre": 1,
    "Grupo": "Av",
    "Matricula": 42303838,
    "Nombre": "Vazquez Esquivel Natalya Zughey"
    
  },
  {
    "Semestre": 1,
    "Grupo": "Bv",
    "Matricula": 20204933,
    "Nombre": "Pacheco Larraga Fatima Sanjuana"
    
  },
  {
    "Semestre": 1,
    "Grupo": "Bv",
    "Matricula": 42203590,
    "Nombre": "Martinez Gonzalez Manuel Fernando*"
    
  },
  {
    "Semestre": 1,
    "Grupo": "Bv",
    "Matricula": 42205607,
    "Nombre": "Ramos Hernandez Emmanuel"
    
  },
  {
    "Semestre": 1,
    "Grupo": "Bv",
    "Matricula": 42303031,
    "Nombre": "Alonso Avila Juana Paola"
    
  },
  {
    "Semestre": 1,
    "Grupo": "Bv",
    "Matricula": 42303019,
    "Nombre": "Aragon Cristerna Said Daniel"
    
  },
  {
    "Semestre": 1,
    "Grupo": "Bv",
    "Matricula": 42303023,
    "Nombre": "Arellano Tenorio Lariza Guadalupe"
    
  },
  {
    "Semestre": 1,
    "Grupo": "Bv",
    "Matricula": 42206144,
    "Nombre": "Becerra Diaz Luis Angel"
    
  },
  {
    "Semestre": 1,
    "Grupo": "Bv",
    "Matricula": 42305051,
    "Nombre": "Carrillo Landin Anuar Melquiades"
    
  },
  {
    "Semestre": 1,
    "Grupo": "Bv",
    "Matricula": 42305064,
    "Nombre": "Castillo Olmos Danna Camila"
    
  },
  {
    "Semestre": 1,
    "Grupo": "Bv",
    "Matricula": 42303045,
    "Nombre": "Cruz De Leon Arturo"
    
  },
  {
    "Semestre": 1,
    "Grupo": "Bv",
    "Matricula": 42301784,
    "Nombre": "Duran Hinojosa Ana Isabel"
    
  },
  {
    "Semestre": 1,
    "Grupo": "Bv",
    "Matricula": 42303232,
    "Nombre": "Gomez Aguilar Yoseth"
    
  },
  {
    "Semestre": 1,
    "Grupo": "Bv",
    "Matricula": 42208168,
    "Nombre": "Hernandez Trejo Jose Cruz"
    
  },
  {
    "Semestre": 1,
    "Grupo": "Bv",
    "Matricula": 42303198,
    "Nombre": "Herrera Delgado Carlos Eduardo"
    
  },
  {
    "Semestre": 1,
    "Grupo": "Bv",
    "Matricula": 42302445,
    "Nombre": "Hinojosa Moreno Yostin Alfredo"
    
  },
  {
    "Semestre": 1,
    "Grupo": "Bv",
    "Matricula": 42302446,
    "Nombre": "Hurtado Castillo Sonia Analy"
    
  },
  {
    "Semestre": 1,
    "Grupo": "Bv",
    "Matricula": 42302449,
    "Nombre": "Jacobo Collazo Maria Del Rosario"
    
  },
  {
    "Semestre": 1,
    "Grupo": "Bv",
    "Matricula": 42302418,
    "Nombre": "Lopez Paredes Joselyn Otilia"
    
  },
  {
    "Semestre": 1,
    "Grupo": "Bv",
    "Matricula": 42303256,
    "Nombre": "Luna Mora Kevin Misael"
    
  },
  {
    "Semestre": 1,
    "Grupo": "Bv",
    "Matricula": 20201344,
    "Nombre": "Martinez Esparza Fabian Oswaldo"
    
  },
  {
    "Semestre": 1,
    "Grupo": "Bv",
    "Matricula": 42303225,
    "Nombre": "Martinez Garcia Alejandra Guadalupe"
    
  },
  {
    "Semestre": 1,
    "Grupo": "Bv",
    "Matricula": 42303230,
    "Nombre": "Martinez Hernandez Ricardo"
    
  },
  {
    "Semestre": 1,
    "Grupo": "Bv",
    "Matricula": 42203588,
    "Nombre": "Martinez Ibarra Liliana Aracely*"
    
  },
  {
    "Semestre": 1,
    "Grupo": "Bv",
    "Matricula": 42304753,
    "Nombre": "Murillo Diaz Danna Zarahi"
    
  },
  {
    "Semestre": 1,
    "Grupo": "Bv",
    "Matricula": 42304754,
    "Nombre": "Murillo Martinez Jesus Adrian"
    
  },
  {
    "Semestre": 1,
    "Grupo": "Bv",
    "Matricula": 42303169,
    "Nombre": "Novella Hernandez Santiago"
    
  },
  {
    "Semestre": 1,
    "Grupo": "Bv",
    "Matricula": 42204531,
    "Nombre": "Ortiz Felguerez Diego Abraham*"
    
  },
  {
    "Semestre": 1,
    "Grupo": "Bv",
    "Matricula": 42303171,
    "Nombre": "Ramirez Arriaga Xitlalli Guadalupe"
    
  },
  {
    "Semestre": 1,
    "Grupo": "Bv",
    "Matricula": 42303874,
    "Nombre": "Reveles Delgado Israel Andres"
    
  },
  {
    "Semestre": 1,
    "Grupo": "Bv",
    "Matricula": 42304764,
    "Nombre": "Salas Reyes Laura Lucia"
    
  },
  {
    "Semestre": 1,
    "Grupo": "Bv",
    "Matricula": 42304777,
    "Nombre": "Segundo Severiano Dulce Alondra"
    
  },
  {
    "Semestre": 1,
    "Grupo": "Bv",
    "Matricula": 42304779,
    "Nombre": "Sifuentes Galvan Cuauhtemoc Rafael"
    
  },
  {
    "Semestre": 1,
    "Grupo": "Bv",
    "Matricula": 42205210,
    "Nombre": "Valle Torres Abdalay Abigail*"
  
  },
  {
    "Semestre": 1,
    "Grupo": "Cv",
    "Matricula": 42205172,
    "Nombre": "Chavez Rocha Diego Alexander*"
    
  },
  {
    "Semestre": 1,
    "Grupo": "Cv",
    "Matricula": 42205186,
    "Nombre": "Cortez Perez Sara*"
    
  },
  {
    "Semestre": 1,
    "Grupo": "Cv",
    "Matricula": 42206151,
    "Nombre": "Fernandez Aldava Metzli Hazel*"
    
  },
  {
    "Semestre": 1,
    "Grupo": "Cv",
    "Matricula": 42201841,
    "Nombre": "Robles Alvarado Dulce Maria*"
    
  },
  {
    "Semestre": 1,
    "Grupo": "Cv",
    "Matricula": 42305077,
    "Nombre": "Aguilar Martinez Dysys Denisse"
    
  },
  {
    "Semestre": 1,
    "Grupo": "Cv",
    "Matricula": 42303026,
    "Nombre": "Arteaga Garcia Emiliano Guadalupe"
    
  },
  {
    "Semestre": 1,
    "Grupo": "Cv",
    "Matricula": 42303078,
    "Nombre": "Calderon Ibarra Edwin Felipe"
    
  },
  {
    "Semestre": 1,
    "Grupo": "Cv",
    "Matricula": 42203419,
    "Nombre": "Carrillo Loera Adan Octavio"
    
  },
  {
    "Semestre": 1,
    "Grupo": "Cv",
    "Matricula": 42305066,
    "Nombre": "Castillo Villegas Omar"
    
  },
  {
    "Semestre": 1,
    "Grupo": "Cv",
    "Matricula": 42303072,
    "Nombre": "Centeno Garza Hillary Liliana"
    
  },
  {
    "Semestre": 1,
    "Grupo": "Cv",
    "Matricula": 42303062,
    "Nombre": "Chavez Davila Santiago Alejandro"
    
  },
  {
    "Semestre": 1,
    "Grupo": "Cv",
    "Matricula": 42104430,
    "Nombre": "Correa Carrillo Juan Pablo*"
    
  },
  {
    "Semestre": 1,
    "Grupo": "Cv",
    "Matricula": 42205185,
    "Nombre": "Cortes Ontiveros Juan Pablo*"
    
  },
  {
    "Semestre": 1,
    "Grupo": "Cv",
    "Matricula": 42301815,
    "Nombre": "Delgado Esquivel Nicolas"
    
  },
  {
    "Semestre": 1,
    "Grupo": "Cv",
    "Matricula": 42301792,
    "Nombre": "Escobedo Salazar Aldo Yael"
    
  },
  {
    "Semestre": 1,
    "Grupo": "Cv",
    "Matricula": 42301818,
    "Nombre": "Esquivel Valenzuela Britany"
    
  },
  {
    "Semestre": 1,
    "Grupo": "Cv",
    "Matricula": 42204411,
    "Nombre": "Flores Paniagua Jose Uriel*"
    
  },
  {
    "Semestre": 1,
    "Grupo": "Cv",
    "Matricula": 42304716,
    "Nombre": "Flores Pinedo Cesar Aurelio"
    
  },
  {
    "Semestre": 1,
    "Grupo": "Cv",
    "Matricula": 42302346,
    "Nombre": "Galvan Palacios Sara Maria Isabel"
    
  },
  {
    "Semestre": 1,
    "Grupo": "Cv",
    "Matricula": 42302363,
    "Nombre": "Garcia Rodriguez Diana Valeria"
  
  },
  {
    "Semestre": 1,
    "Grupo": "Cv",
    "Matricula": 42302367,
    "Nombre": "Garcia Xolocotzi Julia Sofia"
    
  },
  {
    "Semestre": 1,
    "Grupo": "Cv",
    "Matricula": 42302374,
    "Nombre": "Gonzalez Del Rio Danna Celeste"
    
  },
  {
    "Semestre": 1,
    "Grupo": "Cv",
    "Matricula": 42303197,
    "Nombre": "Hernandez Velazquez Fernando Manuel"
    
  },
  {
    "Semestre": 1,
    "Grupo": "Cv",
    "Matricula": 42306683,
    "Nombre": "Hernandez Rivera Brallan Stif"
    
  },
  {
    "Semestre": 1,
    "Grupo": "Cv",
    "Matricula": 42303199,
    "Nombre": "Herrera Gonzalez Daniela Lupita"
    
  },
  {
    "Semestre": 1,
    "Grupo": "Cv",
    "Matricula": 42302413,
    "Nombre": "Lopez Guerrero Dafne Anahi"
    
  },
  {
    "Semestre": 1,
    "Grupo": "Cv",
    "Matricula": 42303253,
    "Nombre": "Lugo Muro Aany Leilany"
    
  },
  {
    "Semestre": 1,
    "Grupo": "Cv",
    "Matricula": 42303211,
    "Nombre": "Maldonado Sanchez Miriam Noemi"
    
  },
  {
    "Semestre": 1,
    "Grupo": "Cv",
    "Matricula": 42303217,
    "Nombre": "Marquez Muñoz Cristian Uriel"
    
  },
  {
    "Semestre": 1,
    "Grupo": "Cv",
    "Matricula": 42302338,
    "Nombre": "Montoya Caldera Marely Guadalupe"
    
  },
  {
    "Semestre": 1,
    "Grupo": "Cv",
    "Matricula": 42304745,
    "Nombre": "Moreno Sosa Frida Sofia"
    
  },
  {
    "Semestre": 1,
    "Grupo": "Cv",
    "Matricula": 42303043,
    "Nombre": "Oliva Zeus Caleb"
    
  },
  {
    "Semestre": 1,
    "Grupo": "Cv",
    "Matricula": 42304789,
    "Nombre": "Perea Morelos Juan Jose"
    
  },
  {
    "Semestre": 1,
    "Grupo": "Cv",
    "Matricula": 42303849,
    "Nombre": "Torres Aguirre Jonathan De Jesus"
    
  },
  {
    "Semestre": 1,
    "Grupo": "Cv",
    "Matricula": 42205009,
    "Nombre": "Valdez Flores Miguel Angel Guadalupe*"
    
  },
  {
    "Semestre": 1,
    "Grupo": "Cv",
    "Matricula": 42303804,
    "Nombre": "Villegas Villegas Grecia Nahomi"
    
  },
  {
    "Semestre": 1,
    "Grupo": "Dv",
    "Matricula": 42304896,
    "Nombre": "Juarez Esparza Adair Efrain"
    
  },
  {
    "Semestre": 1,
    "Grupo": "Dv",
    "Matricula": 42303243,
    "Nombre": "Martinez Trejo Isaac Esau"
    
  },
  {
    "Semestre": 1,
    "Grupo": "Dv",
    "Matricula": 42201843,
    "Nombre": "Robles Gamboa Jose Manuel*"
    
  },
  {
    "Semestre": 1,
    "Grupo": "Dv",
    "Matricula": 42305063,
    "Nombre": "Alfaro Ortiz Angel Eduardo"
    
  },
  {
    "Semestre": 1,
    "Grupo": "Dv",
    "Matricula": 42303033,
    "Nombre": "Alvarado Carrillo Luis Angel"
    
  },
  {
    "Semestre": 1,
    "Grupo": "Dv",
    "Matricula": 42303027,
    "Nombre": "Angeles Ascencio Tristan Alexander"
    
  },
  {
    "Semestre": 1,
    "Grupo": "Dv",
    "Matricula": 39207940,
    "Nombre": "Carmona Barrios Raquel Adriana"
    
  },
  {
    "Semestre": 1,
    "Grupo": "Dv",
    "Matricula": 42303075,
    "Nombre": "Cerpa Enriquez Natalia Giselle"
    
  },
  {
    "Semestre": 1,
    "Grupo": "Dv",
    "Matricula": 42301788,
    "Nombre": "Escobedo Avila Benjamin Azael"
    
  },
  {
    "Semestre": 1,
    "Grupo": "Dv",
    "Matricula": 42304713,
    "Nombre": "Flores Marquez Ashley Ariana Del Rosario"
    
  },
  {
    "Semestre": 1,
    "Grupo": "Dv",
    "Matricula": 42302351,
    "Nombre": "Garcia Cervantes Erick"
    
  },
  {
    "Semestre": 1,
    "Grupo": "Dv",
    "Matricula": 42302378,
    "Nombre": "Gonzalez Hernandez Rembrandt Yoel"
    
  },
  {
    "Semestre": 1,
    "Grupo": "Dv",
    "Matricula": 42302439,
    "Nombre": "Hernandez Carranza Daniel"
    
  },
  {
    "Semestre": 1,
    "Grupo": "Dv",
    "Matricula": 42205318,
    "Nombre": "Hernandez Diaz Melanie Daniela*"
    
  },
  {
    "Semestre": 1,
    "Grupo": "Dv",
    "Matricula": 42303259,
    "Nombre": "Macias Torres Christopher Scott"
    
  },
  {
    "Semestre": 1,
    "Grupo": "Dv",
    "Matricula": 42207674,
    "Nombre": "Macias Torres Edgar Ramses Alexander*"
    
  },
  {
    "Semestre": 1,
    "Grupo": "Dv",
    "Matricula": 42303241,
    "Nombre": "Martinez Nieto Sofia"
    
  },
  {
    "Semestre": 1,
    "Grupo": "Dv",
    "Matricula": 42303244,
    "Nombre": "Martinez Vazquez Camila"
    
  },
  {
    "Semestre": 1,
    "Grupo": "Dv",
    "Matricula": 20203627,
    "Nombre": "Mendez Cruz Luis Leonardo"
    
  },
  {
    "Semestre": 1,
    "Grupo": "Dv",
    "Matricula": 42302368,
    "Nombre": "Morales Ortega Angel Valentin"
    
  },
  {
    "Semestre": 1,
    "Grupo": "Dv",
    "Matricula": 42304738,
    "Nombre": "Ortiz Rios Felipe De Jesus"
    
  },
  {
    "Semestre": 1,
    "Grupo": "Dv",
    "Matricula": 42304741,
    "Nombre": "Ovalle Gomez Edwar Alfredo"
    
  },
  {
    "Semestre": 1,
    "Grupo": "Dv",
    "Matricula": 42303133,
    "Nombre": "Palacios Zavala Luis Antonio"
    
  },
  {
    "Semestre": 1,
    "Grupo": "Dv",
    "Matricula": 42303181,
    "Nombre": "Quiroz Rodriguez Jorge Roberto"
    
  },
  {
    "Semestre": 1,
    "Grupo": "Dv",
    "Matricula": 42302457,
    "Nombre": "Ramirez Garcia Eduardo Isaac"
  
  },
  {
    "Semestre": 1,
    "Grupo": "Dv",
    "Matricula": 42204554,
    "Nombre": "Rios Mauricio Josue Emiliano*"
    
  },
  {
    "Semestre": 1,
    "Grupo": "Dv",
    "Matricula": 42206720,
    "Nombre": "Rodriguez Moreno Sharon Monserrath"
    
  },
  {
    "Semestre": 1,
    "Grupo": "Dv",
    "Matricula": 42303158,
    "Nombre": "Rodriguez Tobanche Ruby Ayelen"
    
  },
  {
    "Semestre": 1,
    "Grupo": "Dv",
    "Matricula": 42304756,
    "Nombre": "Romo Piña Ian Piero"
    
  },
  {
    "Semestre": 1,
    "Grupo": "Dv",
    "Matricula": 42304760,
    "Nombre": "Ruiz Esparza Yuliana Guadalupe"
    
  },
  {
    "Semestre": 1,
    "Grupo": "Dv",
    "Matricula": 42303846,
    "Nombre": "Torres Palacios Jose Emiliano"
    
  },
  {
    "Semestre": 1,
    "Grupo": "Dv",
    "Matricula": 42205007,
    "Nombre": "Valadez Ortiz Ricardo*"
    
  },
  {
    "Semestre": 1,
    "Grupo": "Dv",
    "Matricula": 42206001,
    "Nombre": "Valdez Perea Saul Eleazar*"
    
  },
  {
    "Semestre": 1,
    "Grupo": "Ev",
    "Matricula": 42304896,
    "Nombre": "Juarez Esparza Adair Efrain"
    
  },
  {
    "Semestre": 1,
    "Grupo": "Ev",
    "Matricula": 42303243,
    "Nombre": "Martinez Trejo Isaac Esau"
    
  },
  {
    "Semestre": 1,
    "Grupo": "Ev",
    "Matricula": 42201843,
    "Nombre": "Robles Gamboa Jose Manuel*"
    
  },
  {
    "Semestre": 1,
    "Grupo": "Ev",
    "Matricula": 42305063,
    "Nombre": "Alfaro Ortiz Angel Eduardo"
    
  },
  {
    "Semestre": 1,
    "Grupo": "Ev",
    "Matricula": 42303033,
    "Nombre": "Alvarado Carrillo Luis Angel"

  },
  {
    "Semestre": 1,
    "Grupo": "Ev",
    "Matricula": 42303027,
    "Nombre": "Angeles Ascencio Tristan Alexander"
    
  },
  {
    "Semestre": 1,
    "Grupo": "Ev",
    "Matricula": 39207940,
    "Nombre": "Carmona Barrios Raquel Adriana"
    
  },
  {
    "Semestre": 1,
    "Grupo": "Ev",
    "Matricula": 42303075,
    "Nombre": "Cerpa Enriquez Natalia Giselle"
    
  },
  {
    "Semestre": 1,
    "Grupo": "Ev",
    "Matricula": 42301788,
    "Nombre": "Escobedo Avila Benjamin Azael"
    
  },
  {
    "Semestre": 1,
    "Grupo": "Ev",
    "Matricula": 42304713,
    "Nombre": "Flores Marquez Ashley Ariana Del Rosario"
    
  },
  {
    "Semestre": 1,
    "Grupo": "Ev",
    "Matricula": 42302351,
    "Nombre": "Garcia Cervantes Erick"
    
  },
  {
    "Semestre": 1,
    "Grupo": "Ev",
    "Matricula": 42302378,
    "Nombre": "Gonzalez Hernandez Rembrandt Yoel"
    
  },
  {
    "Semestre": 1,
    "Grupo": "Ev",
    "Matricula": 42302439,
    "Nombre": "Hernandez Carranza Daniel"
    
  },
  {
    "Semestre": 1,
    "Grupo": "Ev",
    "Matricula": 42205318,
    "Nombre": "Hernandez Diaz Melanie Daniela*"
    
  },
  {
    "Semestre": 1,
    "Grupo": "Ev",
    "Matricula": 42303259,
    "Nombre": "Macias Torres Christopher Scott"
    
  },
  {
    "Semestre": 1,
    "Grupo": "Ev",
    "Matricula": 42207674,
    "Nombre": "Macias Torres Edgar Ramses Alexander*"
    
  },
  {
    "Semestre": 1,
    "Grupo": "Ev",
    "Matricula": 42303241,
    "Nombre": "Martinez Nieto Sofia"
    
  },
  {
    "Semestre": 1,
    "Grupo": "Ev",
    "Matricula": 42303244,
    "Nombre": "Martinez Vazquez Camila"
    
  },
  {
    "Semestre": 1,
    "Grupo": "Ev",
    "Matricula": 20203627,
    "Nombre": "Mendez Cruz Luis Leonardo"
    
  },
  {
    "Semestre": 1,
    "Grupo": "Ev",
    "Matricula": 42302368,
    "Nombre": "Morales Ortega Angel Valentin"
  
  },
  {
    "Semestre": 1,
    "Grupo": "Ev",
    "Matricula": 42304738,
    "Nombre": "Ortiz Rios Felipe De Jesus"
    
  },
  {
    "Semestre": 1,
    "Grupo": "Ev",
    "Matricula": 42304741,
    "Nombre": "Ovalle Gomez Edwar Alfredo"
    
  },
  {
    "Semestre": 1,
    "Grupo": "Ev",
    "Matricula": 42303133,
    "Nombre": "Palacios Zavala Luis Antonio"
    
  },
  {
    "Semestre": 1,
    "Grupo": "Ev",
    "Matricula": 42303181,
    "Nombre": "Quiroz Rodriguez Jorge Roberto"
    
  },
  {
    "Semestre": 1,
    "Grupo": "Ev",
    "Matricula": 42302457,
    "Nombre": "Ramirez Garcia Eduardo Isaac"
    
  },
  {
    "Semestre": 1,
    "Grupo": "Ev",
    "Matricula": 42204554,
    "Nombre": "Rios Mauricio Josue Emiliano*"
    
  },
  {
    "Semestre": 1,
    "Grupo": "Ev",
    "Matricula": 42206720,
    "Nombre": "Rodriguez Moreno Sharon Monserrath"
    
  },
  {
    "Semestre": 1,
    "Grupo": "Ev",
    "Matricula": 42303158,
    "Nombre": "Rodriguez Tobanche Ruby Ayelen"
    
  },
  {
    "Semestre": 1,
    "Grupo": "Ev",
    "Matricula": 42304756,
    "Nombre": "Romo Piña Ian Piero"
    
  },
  {
    "Semestre": 1,
    "Grupo": "Ev",
    "Matricula": 42304760,
    "Nombre": "Ruiz Esparza Yuliana Guadalupe"
    
  },
  {
    "Semestre": 1,
    "Grupo": "Ev",
    "Matricula": 42303846,
    "Nombre": "Torres Palacios Jose Emiliano"
    
  },
  {
    "Semestre": 1,
    "Grupo": "Ev",
    "Matricula": 42205007,
    "Nombre": "Valadez Ortiz Ricardo*"
    
  },
  {
    "Semestre": 1,
    "Grupo": "Ev",
    "Matricula": 42206001,
    "Nombre": "Valdez Perea Saul Eleazar*"
  
  },
  {
    "Semestre": 1,
    "Grupo": "Fv",
    "Matricula": 42303253,
    "Nombre": "Lugo Muro Aany Leilany"
    
  },
  {
    "Semestre": 1,
    "Grupo": "Fv",
    "Matricula": 42303804,
    "Nombre": "Villegas Villegas Grecia Nahomi"
    
  },
  {
    "Semestre": 1,
    "Grupo": "Fv",
    "Matricula": 42204413,
    "Nombre": "Frias Rubio David*"
    
  },
  {
    "Semestre": 1,
    "Grupo": "Fv",
    "Matricula": 42205329,
    "Nombre": "Gutierrez Rodriguez Jesus Adrian*"
    
  },
  {
    "Semestre": 1,
    "Grupo": "Fv",
    "Matricula": 42208289,
    "Nombre": "Reyes Alvarado Maria De Los Angeles"
    
  },
  {
    "Semestre": 1,
    "Grupo": "Fv",
    "Matricula": 42204375,
    "Nombre": "Alvarez Villarreal Diana Jazmin*"
    
  },
  {
    "Semestre": 1,
    "Grupo": "Fv",
    "Matricula": 20201466,
    "Nombre": "Araujo Sosa Jesua Makhlouf"
    
  },
  {
    "Semestre": 1,
    "Grupo": "Fv",
    "Matricula": 42303040,
    "Nombre": "Belmontes Montelongo Juan Alejandro"
    
  },
  {
    "Semestre": 1,
    "Grupo": "Fv",
    "Matricula": 42303042,
    "Nombre": "Bernal Albino Braulio"
    
  },
  {
    "Semestre": 1,
    "Grupo": "Fv",
    "Matricula": 42305060,
    "Nombre": "Castillo Cruz Christian Geovanni"
    
  },
  {
    "Semestre": 1,
    "Grupo": "Fv",
    "Matricula": 42303069,
    "Nombre": "Castro Reyes Fernando Jesus"
    
  },
  {
    "Semestre": 1,
    "Grupo": "Fv",
    "Matricula": 42301806,
    "Nombre": "De Loera Vazquez Karol Abraham"
    
  },
  {
    "Semestre": 1,
    "Grupo": "Fv",
    "Matricula": 42207732,
    "Nombre": "Dominguez Lozano Hector Manuel Alejandro*"
    
  },
  {
    "Semestre": 1,
    "Grupo": "Fv",
    "Matricula": 42301822,
    "Nombre": "Felix Rodriguez Angel Omar"
    
  },
  {
    "Semestre": 1,
    "Grupo": "Fv",
    "Matricula": 42302396,
    "Nombre": "Fraire Martinez Adriel Maximiliano"
    
  },
  {
    "Semestre": 1,
    "Grupo": "Fv",
    "Matricula": 42302382,
    "Nombre": "Gonzalez Muñoz Diego"
    
  },
  {
    "Semestre": 1,
    "Grupo": "Fv",
    "Matricula": 42303189,
    "Nombre": "Hernandez Ramirez Fatima Esperanza"},
  {
    "Semestre": 1,
    "Grupo": "Fv",
    "Matricula": 42303192,
    "Nombre": "Hernandez Torres Marlon Murat"},
  {
    "Semestre": 1,
    "Grupo": "Fv",
    "Matricula": 42302453,
    "Nombre": "Juarez De Avila Alma Paola"},
  {
    "Semestre": 1,
    "Grupo": "Fv",
    "Matricula": 42302427,
    "Nombre": "Juarez Herrera Juan Manuel"},
  {
    "Semestre": 1,
    "Grupo": "Fv",
    "Matricula": 42302400,
    "Nombre": "Lara Barrios Diego Emiliano"},
  {
    "Semestre": 1,
    "Grupo": "Fv",
    "Matricula": 42203614,
    "Nombre": "Loera Hernandez Joel Armando*"},
  {
    "Semestre": 1,
    "Grupo": "Fv",
    "Matricula": 42303203,
    "Nombre": "Martinez Martinez Allison Fernanda"},
  {
    "Semestre": 1,
    "Grupo": "Fv",
    "Matricula": 42302424,
    "Nombre": "Mendez Romo Pedro Manuel"},
  {
    "Semestre": 1,
    "Grupo": "Fv",
    "Matricula": 42302406,
    "Nombre": "Mendoza Valdez Hernan Dean"},
  {
    "Semestre": 1,
    "Grupo": "Fv",
    "Matricula": 42302370,
    "Nombre": "Moreno De La Cruz Juan Manuel"},
  {
    "Semestre": 1,
    "Grupo": "Fv",
    "Matricula": 42204512,
    "Nombre": "Muro Alonso Yovani Alejandro"},
  {
    "Semestre": 1,
    "Grupo": "Fv",
    "Matricula": 42304734,
    "Nombre": "Ortega Garcia Miriam Amairany"},
  {
    "Semestre": 1,
    "Grupo": "Fv",
    "Matricula": 42206138,
    "Nombre": "Perea Lopez Braulio*"},
  {
    "Semestre": 1,
    "Grupo": "Fv",
    "Matricula": 42201842,
    "Nombre": "Robles Belmontes Antonio De Jesus*"},
  {
    "Semestre": 1,
    "Grupo": "Fv",
    "Matricula": 42303154,
    "Nombre": "Rodriguez Ortiz Angel Dylan"},
  {
    "Semestre": 1,
    "Grupo": "Fv",
    "Matricula": 42205026,
    "Nombre": "Torres Loera Daniel*"},
  {
    "Semestre": 1,
    "Grupo": "Fv",
    "Matricula": 42205037,
    "Nombre": "Trujillo Torres Diego Arturo*"},
  {
    "Semestre": 1,
    "Grupo": "Gv",
    "Matricula": 42205023,
    "Nombre": "Terriquez Perez Fernando*"},
  {
    "Semestre": 1,
    "Grupo": "Gv",
    "Matricula": 42106531,
    "Nombre": "Valdez Garcia Victor Alfonso*"},
  {
    "Semestre": 1,
    "Grupo": "Gv",
    "Matricula": 42305078,
    "Nombre": "Aguilar Escobar Sanjuana"},
  {
    "Semestre": 1,
    "Grupo": "Gv",
    "Matricula": 42204630,
    "Nombre": "Campos Rodriguez Sonia Yatzel*"},
  {
    "Semestre": 1,
    "Grupo": "Gv",
    "Matricula": 42305055,
    "Nombre": "Casillas Salas Amy Naomi"},
  {
    "Semestre": 1,
    "Grupo": "Gv",
    "Matricula": 42303064,
    "Nombre": "Chavez Giron Hector Emmanuel"},
  {
    "Semestre": 1,
    "Grupo": "Gv",
    "Matricula": 42303055,
    "Nombre": "Davila Pinedo Osvaldo Zaid"},
  {
    "Semestre": 1,
    "Grupo": "Gv",
    "Matricula": 42303142,
    "Nombre": "De Avila Orozco Emilio"},
  {
    "Semestre": 1,
    "Grupo": "Gv",
    "Matricula": 42205293,
    "Nombre": "Delgado Espino Alondra Abigail*"},
  {
    "Semestre": 1,
    "Grupo": "Gv",
    "Matricula": 42301816,
    "Nombre": "Delgado Medina Esteban Alejandro Jonathan"},
  {
    "Semestre": 1,
    "Grupo": "Gv",
    "Matricula": 42301779,
    "Nombre": "Diaz Reveles Samantha"},
  {
    "Semestre": 1,
    "Grupo": "Gv",
    "Matricula": 42104622,
    "Nombre": "Favela Valdivia Cristopher Alejandro*"},
  {
    "Semestre": 1,
    "Grupo": "Gv",
    "Matricula": 42306195,
    "Nombre": "Flores De Alba Ivan Alejandro"},
  {
    "Semestre": 1,
    "Grupo": "Gv",
    "Matricula": 42303204,
    "Nombre": "Hernandez Gonzalez Cristina Jatziry"},
  {
    "Semestre": 1,
    "Grupo": "Gv",
    "Matricula": 42303190,
    "Nombre": "Hernandez Rivera Javier"},
  {
    "Semestre": 1,
    "Grupo": "Gv",
    "Matricula": 42302420,
    "Nombre": "Lopez Rodriguez Alan Eduardo"},
  {
    "Semestre": 1,
    "Grupo": "Gv",
    "Matricula": 42302421,
    "Nombre": "Lopez Rodriguez Evelyn"},
  {
    "Semestre": 1,
    "Grupo": "Gv",
    "Matricula": 42303208,
    "Nombre": "Maldonado Larriba Angel Fernando"},
  {
    "Semestre": 1,
    "Grupo": "Gv",
    "Matricula": 42303226,
    "Nombre": "Martinez Garcia Ricardo Yael"},
  {
    "Semestre": 1,
    "Grupo": "Gv",
    "Matricula": 42304751,
    "Nombre": "Muñoz Gonzalez Elisa Yatzil"},
  {
    "Semestre": 1,
    "Grupo": "Gv",
    "Matricula": 42304794,
    "Nombre": "Nuñez Lopez Daniel"},
  {
    "Semestre": 1,
    "Grupo": "Gv",
    "Matricula": 42105570,
    "Nombre": "Orozco Galarza Maria Magdalena"},
  {
    "Semestre": 1,
    "Grupo": "Gv",
    "Matricula": 42303135,
    "Nombre": "Parga Chavez Nuvia Vanessa"},
  {
    "Semestre": 1,
    "Grupo": "Gv",
    "Matricula": 42303872,
    "Nombre": "Renobato Escobedo Cesar Daniel"},
  {
    "Semestre": 1,
    "Grupo": "Gv",
    "Matricula": 42303873,
    "Nombre": "Renteria Espinoza Emmanuel De Jesus"},
  {
    "Semestre": 1,
    "Grupo": "Gv",
    "Matricula": 39203149,
    "Nombre": "Rodriguez Diaz Franco Ubaldo"},
  {
    "Semestre": 1,
    "Grupo": "Gv",
    "Matricula": 42303821,
    "Nombre": "Treto Monsivais Angel Fabian"},
  {
    "Semestre": 1,
    "Grupo": "Gv",
    "Matricula": 42303837,
    "Nombre": "Vazquez Escareño Guadalupe Lizeth"},
  {
    "Semestre": 1,
    "Grupo": "Gv",
    "Matricula": 42303813,
    "Nombre": "Velazquez Aparicio Rene"},
  {
    "Semestre": 1,
    "Grupo": "Gv",
    "Matricula": 42205195,
    "Nombre": "Venegas Torres Naithan Angel Gabriel*"},
  {
    "Semestre": 1,
    "Grupo": "Gv",
    "Matricula": 42303809,
    "Nombre": "Villa Del Rio Angel Gabriel"},
  {
    "Semestre": 1,
    "Grupo": "Gv",
    "Matricula": 42303806,
    "Nombre": "Villarreal Rosa Karen Paola"},
  {
    "Semestre": 1,
    "Grupo": "Gv",
    "Matricula": 42303801,
    "Nombre": "Yee Lopez Guillermo Lee"},
  {
    "Semestre": 1,
    "Grupo": "Hv",
    "Matricula": 42305748,
    "Nombre": "Rodriguez Salcedo Ramon"},
  {
    "Semestre": 1,
    "Grupo": "Hv",
    "Matricula": 42205685,
    "Nombre": "Becerra Castañeda Said Alejandro*"},
  {
    "Semestre": 1,
    "Grupo": "Hv",
    "Matricula": 42204526,
    "Nombre": "Ortiz Calvillo Sergio Octavio*"},
  {
    "Semestre": 1,
    "Grupo": "Hv",
    "Matricula": 42201839,
    "Nombre": "Rivera Castañeda Josue Esau*"},
  {
    "Semestre": 1,
    "Grupo": "Hv",
    "Matricula": 42204605,
    "Nombre": "Belmontes Aguilar Cynthia Teresa*"},
  {
    "Semestre": 1,
    "Grupo": "Hv",
    "Matricula": 42303051,
    "Nombre": "Davila Gomez Carlos Armando"},
  {
    "Semestre": 1,
    "Grupo": "Hv",
    "Matricula": 42303053,
    "Nombre": "Davila Martinez Jorge"},
  {
    "Semestre": 1,
    "Grupo": "Hv",
    "Matricula": 42303138,
    "Nombre": "Davila Pinedo Abril Georget"},
  {
    "Semestre": 1,
    "Grupo": "Hv",
    "Matricula": 42303145,
    "Nombre": "De La Cruz De La Cruz Leslie Arendy"},
  {
    "Semestre": 1,
    "Grupo": "Hv",
    "Matricula": 42205310,
    "Nombre": "De Leon Sotelo Diana Carolina*"},
  {
    "Semestre": 1,
    "Grupo": "Hv",
    "Matricula": 42302356,
    "Nombre": "Garcia Marquez Eduardo Gonzalo"},
  {
    "Semestre": 1,
    "Grupo": "Hv",
    "Matricula": 42205338,
    "Nombre": "Gonzalez Renteria Valentina*"},
  {
    "Semestre": 1,
    "Grupo": "Hv",
    "Matricula": 42302438,
    "Nombre": "Hernandez Almaraz Fatima Abigail"},
  {
    "Semestre": 1,
    "Grupo": "Hv",
    "Matricula": 42302448,
    "Nombre": "Ibarra Torres Edwin Omar"},
  {
    "Semestre": 1,
    "Grupo": "Hv",
    "Matricula": 42203607,
    "Nombre": "Lopez Guardado Yazmin*"},
  {
    "Semestre": 1,
    "Grupo": "Hv",
    "Matricula": 42303245,
    "Nombre": "Martinez Vazquez Samantha Abigail"},
  {
    "Semestre": 1,
    "Grupo": "Hv",
    "Matricula": 42303221,
    "Nombre": "Martinez Esparza Jorge Osvaldo"},
  {
    "Semestre": 1,
    "Grupo": "Hv",
    "Matricula": 42103139,
    "Nombre": "Martinez Hernandez Angel Gabriel*"},
  {
    "Semestre": 1,
    "Grupo": "Hv",
    "Matricula": 42205038,
    "Nombre": "Martinez Murillo Mariana Michelle*"},
  {
    "Semestre": 1,
    "Grupo": "Hv",
    "Matricula": 42304736,
    "Nombre": "Ortiz Garcia Brayan Alexis"},
  {
    "Semestre": 1,
    "Grupo": "Hv",
    "Matricula": 42304721,
    "Nombre": "Pacheco Tavares Katy Henereyda Jacqueline"},
  {
    "Semestre": 1,
    "Grupo": "Hv",
    "Matricula": 42304728,
    "Nombre": "Palacios Venegas Esther Elizabeth"},
  {
    "Semestre": 1,
    "Grupo": "Hv",
    "Matricula": 42303879,
    "Nombre": "Perez Perez Said Noe"},
  {
    "Semestre": 1,
    "Grupo": "Hv",
    "Matricula": 42303792,
    "Nombre": "Rodriguez Espino Evelyn Valeria"},
  {
    "Semestre": 1,
    "Grupo": "Hv",
    "Matricula": 42304772,
    "Nombre": "Sanchez Marquez Maria Paola"},
  {
    "Semestre": 1,
    "Grupo": "Hv",
    "Matricula": 42304771,
    "Nombre": "Sanchez Marquez Ana Cristina"},
  {
    "Semestre": 1,
    "Grupo": "Hv",
    "Matricula": 42304776,
    "Nombre": "Saucedo Marquez Diego Gael"},
  {
    "Semestre": 1,
    "Grupo": "Hv",
    "Matricula": 42304782,
    "Nombre": "Sifuentes Pinedo Jimena"
  },
  {
    "Semestre": 1,
    "Grupo": "Hv",
    "Matricula": 42303161,
    "Nombre": "Solis Acevedo Eduardo Fabricio"},
  {
    "Semestre": 1,
    "Grupo": "Hv",
    "Matricula": 42303854,
    "Nombre": "Sosa Iracheta Miguel Angel"},
  {
    "Semestre": 1,
    "Grupo": "Hv",
    "Matricula": 42303831,
    "Nombre": "Vanegas Garcia Martha Natalia"},
  {
    "Semestre": 3,
    "Grupo": "Av",
    "Matricula": 42206570,
    "Nombre": "Aguayo Lamas Marely Guadalupe"},
  {
    "Semestre": 3,
    "Grupo": "Av",
    "Matricula": 42204362,
    "Nombre": "Aguilera Martinez Juan Daniel"},
  {
    "Semestre": 3,
    "Grupo": "Av",
    "Matricula": 42103718,
    "Nombre": "Arellano Ruiz Cielo Ivonne"},
  {
    "Semestre": 3,
    "Grupo": "Av",
    "Matricula": 42103690,
    "Nombre": "Carrillo Rodarte Erik Emiliano"},
  {
    "Semestre": 3,
    "Grupo": "Av",
    "Matricula": 42205164,
    "Nombre": "Castro Hernandez Edgar Antonio"},
  {
    "Semestre": 3,
    "Grupo": "Av",
    "Matricula": 42205166,
    "Nombre": "Cervantes Hernandez Juan Enrique"},
  {
    "Semestre": 3,
    "Grupo": "Av",
    "Matricula": 42205181,
    "Nombre": "Cordova Ulloa Angel Juan Jose"},
  {
    "Semestre": 3,
    "Grupo": "Av",
    "Matricula": 42204430,
    "Nombre": "Esparza Morales Aylin Valeria"},
  {
    "Semestre": 3,
    "Grupo": "Av",
    "Matricula": 42102635,
    "Nombre": "Espino Carrillo Juan Octavio"},
  {
    "Semestre": 3,
    "Grupo": "Av",
    "Matricula": 42204432,
    "Nombre": "Felix Montes Oliver Angel"},
  {
    "Semestre": 3,
    "Grupo": "Av",
    "Matricula": 42301828,
    "Nombre": "Flores Alvarez Vanessa Noemi"},
  {
    "Semestre": 3,
    "Grupo": "Av",
    "Matricula": 42204410,
    "Nombre": "Flores Meza Felicia Michelle"},
  {
    "Semestre": 3,
    "Grupo": "Av",
    "Matricula": 42206483,
    "Nombre": "Gonzalez De Santiago Madelyne Jacqueline"},
  {
    "Semestre": 3,
    "Grupo": "Av",
    "Matricula": 42203635,
    "Nombre": "Ibarra Torres America Guadalupe"},
  {
    "Semestre": 3,
    "Grupo": "Av",
    "Matricula": 42206485,
    "Nombre": "Jacobo Garcia Genoveva Ruby Jazmin"},
  {
    "Semestre": 3,
    "Grupo": "Av",
    "Matricula": 42302405,
    "Nombre": "Lazarin Sandoval Karla Marina"},
  {
    "Semestre": 3,
    "Grupo": "Av",
    "Matricula": 42203611,
    "Nombre": "Loera Rodriguez Jhoana Paola"},
  {
    "Semestre": 3,
    "Grupo": "Av",
    "Matricula": 42203610,
    "Nombre": "Lopez Cordova Ariana Quetzal"},
  {
    "Semestre": 3,
    "Grupo": "Av",
    "Matricula": 42103129,
    "Nombre": "Madera Castañeda Laura Itzel"},
  {
    "Semestre": 3,
    "Grupo": "Av",
    "Matricula": 42204496,
    "Nombre": "Montalvo Garcia Axel Jesus"},
  {
    "Semestre": 3,
    "Grupo": "Av",
    "Matricula": 42204501,
    "Nombre": "Montoya Reyes Sebastian"},
  {
    "Semestre": 3,
    "Grupo": "Av",
    "Matricula": 42204533,
    "Nombre": "Ortiz Rodriguez David Isaias"},
  {
    "Semestre": 3,
    "Grupo": "Av",
    "Matricula": 42204547,
    "Nombre": "Perez Valenzuela Valeria"},
  {
    "Semestre": 3,
    "Grupo": "Av",
    "Matricula": 42204393,
    "Nombre": "Pinedo Aguero Karla Sulem"},
  {
    "Semestre": 3,
    "Grupo": "Av",
    "Matricula": 42203471,
    "Nombre": "Rodriguez Ramirez Maria Concepcion"},
  {
    "Semestre": 3,
    "Grupo": "Av",
    "Matricula": 42201858,
    "Nombre": "Rodriguez Macias Angelica Maria"},
  {
    "Semestre": 3,
    "Grupo": "Av",
    "Matricula": 42201797,
    "Nombre": "Sanchez Diaz Yabnet Yarai"},
  {
    "Semestre": 3,
    "Grupo": "Av",
    "Matricula": 42205020,
    "Nombre": "Sosa Piñon Roberto Daniel"},
  {
    "Semestre": 3,
    "Grupo": "Av",
    "Matricula": 42205021,
    "Nombre": "Sotelo Nava Victoria Jeraldyn"},
  {
    "Semestre": 3,
    "Grupo": "Av",
    "Matricula": 42205032,
    "Nombre": "Trejo Becerra Valeria Yocelin"},
  {
    "Semestre": 3,
    "Grupo": "Av",
    "Matricula": 42205199,
    "Nombre": "Villagrana Almaraz Karol Andrea"},
  {
    "Semestre": 3,
    "Grupo": "Av",
    "Matricula": 42205201,
    "Nombre": "Villagrana Ramos Ingrid"},
  {
    "Semestre": 3,
    "Grupo": "Bv",
    "Matricula": 42107249,
    "Nombre": "Alpizar Rosales Emiliano"},
  {
    "Semestre": 3,
    "Grupo": "Bv",
    "Matricula": 42101280,
    "Nombre": "Alvarado Hernandez Aura Sofia"},
  {
    "Semestre": 3,
    "Grupo": "Bv",
    "Matricula": 42204389,
    "Nombre": "Aviña Rodarte Maria Martha"},
  {
    "Semestre": 3,
    "Grupo": "Bv",
    "Matricula": 39204644,
    "Nombre": "Barcenas Mercado Maria Magdalena"},
  {
    "Semestre": 3,
    "Grupo": "Bv",
    "Matricula": 42107438,
    "Nombre": "Barrientos Salas Yara Isabel"},
  {
    "Semestre": 3,
    "Grupo": "Bv",
    "Matricula": 42204625,
    "Nombre": "Caldera Cabrera Luis Angel"},
  {
    "Semestre": 3,
    "Grupo": "Bv",
    "Matricula": 42205151,
    "Nombre": "Castañeda Briones Omar Alexis"},
  {
    "Semestre": 3,
    "Grupo": "Bv",
    "Matricula": 42104443,
    "Nombre": "Davila Gallegos Carolina*"},
  {
    "Semestre": 3,
    "Grupo": "Bv",
    "Matricula": 42104412,
    "Nombre": "De La Torre Rodriguez Isaac"},
  {
    "Semestre": 3,
    "Grupo": "Bv",
    "Matricula": 42205288,
    "Nombre": "De Santiago Vazquez Hector Nicolas"},
  {
    "Semestre": 3,
    "Grupo": "Bv",
    "Matricula": 20206762,
    "Nombre": "Dominguez Zamora Javier"},
  {
    "Semestre": 3,
    "Grupo": "Bv",
    "Matricula": 42204449,
    "Nombre": "Duran Rivera Karol Milagros Margarita"},
  {
    "Semestre": 3,
    "Grupo": "Bv",
    "Matricula": 42106412,
    "Nombre": "Espinosa Torres Rosa Gabriela"},
  {
    "Semestre": 3,
    "Grupo": "Bv",
    "Matricula": 42204438,
    "Nombre": "Ferreira Gallegos Ana Valeria"},
  {
    "Semestre": 3,
    "Grupo": "Bv",
    "Matricula": 42208361,
    "Nombre": "Flores Felix Stephany Nicole"},
  {
    "Semestre": 3,
    "Grupo": "Bv",
    "Matricula": 42203223,
    "Nombre": "Frias Rubio Santiago"},
  {
    "Semestre": 3,
    "Grupo": "Bv",
    "Matricula": 42206484,
    "Nombre": "Herrera Camarillo Sebastian"},
  {
    "Semestre": 3,
    "Grupo": "Bv",
    "Matricula": 42302404,
    "Nombre": "Lazarin Sandoval Affra Maria"},
  {
    "Semestre": 3,
    "Grupo": "Bv",
    "Matricula": 42106009,
    "Nombre": "Lopez Martinez Ana Paulina"},
  {
    "Semestre": 3,
    "Grupo": "Bv",
    "Matricula": 42107468,
    "Nombre": "Lopez Piña Pablo Andres"},
  {
    "Semestre": 3,
    "Grupo": "Bv",
    "Matricula": 42203589,
    "Nombre": "Martinez Gutierrez Angel De Jesus"},
  {
    "Semestre": 3,
    "Grupo": "Bv",
    "Matricula": 42103115,
    "Nombre": "Martinez Hernandez Angel Noe"},
  {
    "Semestre": 3,
    "Grupo": "Bv",
    "Matricula": 42205377,
    "Nombre": "Martinez Luna Karol Romina"},
  {
    "Semestre": 3,
    "Grupo": "Bv",
    "Matricula": 42205056,
    "Nombre": "Mendez Marquez Kevin Emmanuel"},
  {
    "Semestre": 3,
    "Grupo": "Bv",
    "Matricula": 42204396,
    "Nombre": "Pinedo Meza Cynthia Guadalupe"},
  {
    "Semestre": 3,
    "Grupo": "Bv",
    "Matricula": 42204994,
    "Nombre": "Ramos Gonzalez Manuel"},
  {
    "Semestre": 3,
    "Grupo": "Bv",
    "Matricula": 42103098,
    "Nombre": "Ramos Ruiz Juan Pablo*"},
  {
    "Semestre": 3,
    "Grupo": "Bv",
    "Matricula": 42204999,
    "Nombre": "Raudales Castellanos Wendy Berenice"},
  {
    "Semestre": 3,
    "Grupo": "Bv",
    "Matricula": 42201840,
    "Nombre": "Rivera Del Carpio Cabral Cesar Augusto"},
  {
    "Semestre": 3,
    "Grupo": "Bv",
    "Matricula": 42201853,
    "Nombre": "Rodriguez Castro Mairyn Guadalupe"},
  {
    "Semestre": 3,
    "Grupo": "Bv",
    "Matricula": 42107244,
    "Nombre": "Terriquez Sandoval Jose Gilberto"},
  {
    "Semestre": 3,
    "Grupo": "Bv",
    "Matricula": 42205214,
    "Nombre": "Vargas Martinez Liliana Elizabeth"},
  {
    "Semestre": 3,
    "Grupo": "Bv",
    "Matricula": 42103110,
    "Nombre": "Vega Casillas Luis Jared*"},
  {
    "Semestre": 3,
    "Grupo": "Cv",
    "Matricula": 42205172,
    "Nombre": "Chavez Rocha Diego Alexander*"},
  {
    "Semestre": 3,
    "Grupo": "Cv",
    "Matricula": 42205186,
    "Nombre": "Cortez Perez Sara*"},
  {
    "Semestre": 3,
    "Grupo": "Cv",
    "Matricula": 42206151,
    "Nombre": "Fernandez Aldava Metzli Hazel*"},
  {
    "Semestre": 3,
    "Grupo": "Cv",
    "Matricula": 42201841,
    "Nombre": "Robles Alvarado Dulce Maria*"
  },
  {
    "Semestre": 3,
    "Grupo": "Cv",
    "Matricula": 42305077,
    "Nombre": "Aguilar Martinez Dysys Denisse"},
  {
    "Semestre": 3,
    "Grupo": "Cv",
    "Matricula": 42303026,
    "Nombre": "Arteaga Garcia Emiliano Guadalupe"},
  {
    "Semestre": 3,
    "Grupo": "Cv",
    "Matricula": 42303078,
    "Nombre": "Calderon Ibarra Edwin Felipe"},
  {
    "Semestre": 3,
    "Grupo": "Cv",
    "Matricula": 42203419,
    "Nombre": "Carrillo Loera Adan Octavio"},
  {
    "Semestre": 3,
    "Grupo": "Cv",
    "Matricula": 42305066,
    "Nombre": "Castillo Villegas Omar"},
  {
    "Semestre": 3,
    "Grupo": "Cv",
    "Matricula": 42303072,
    "Nombre": "Centeno Garza Hillary Liliana"},
  {
    "Semestre": 3,
    "Grupo": "Cv",
    "Matricula": 42303062,
    "Nombre": "Chavez Davila Santiago Alejandro"},
  {
    "Semestre": 3,
    "Grupo": "Cv",
    "Matricula": 42104430,
    "Nombre": "Correa Carrillo Juan Pablo*"},
  {
    "Semestre": 3,
    "Grupo": "Cv",
    "Matricula": 42205185,
    "Nombre": "Cortes Ontiveros Juan Pablo*"},
  {
    "Semestre": 3,
    "Grupo": "Cv",
    "Matricula": 42301815,
    "Nombre": "Delgado Esquivel Nicolas"},
  {
    "Semestre": 3,
    "Grupo": "Cv",
    "Matricula": 42301792,
    "Nombre": "Escobedo Salazar Aldo Yael"},
  {
    "Semestre": 3,
    "Grupo": "Cv",
    "Matricula": 42301818,
    "Nombre": "Esquivel Valenzuela Britany"},
  {
    "Semestre": 3,
    "Grupo": "Cv",
    "Matricula": 42204411,
    "Nombre": "Flores Paniagua Jose Uriel*"},
  {
    "Semestre": 3,
    "Grupo": "Cv",
    "Matricula": 42304716,
    "Nombre": "Flores Pinedo Cesar Aurelio"},
  {
    "Semestre": 3,
    "Grupo": "Cv",
    "Matricula": 42302346,
    "Nombre": "Galvan Palacios Sara Maria Isabel"},
  {
    "Semestre": 3,
    "Grupo": "Cv",
    "Matricula": 42302363,
    "Nombre": "Garcia Rodriguez Diana Valeria"},
  {
    "Semestre": 3,
    "Grupo": "Cv",
    "Matricula": 42302367,
    "Nombre": "Garcia Xolocotzi Julia Sofia"},
  {
    "Semestre": 3,
    "Grupo": "Cv",
    "Matricula": 42302374,
    "Nombre": "Gonzalez Del Rio Danna Celeste"},
  {
    "Semestre": 3,
    "Grupo": "Cv",
    "Matricula": 42303197,
    "Nombre": "Hernandez Velazquez Fernando Manuel"},
  {
    "Semestre": 3,
    "Grupo": "Cv",
    "Matricula": 42306683,
    "Nombre": "Hernandez Rivera Brallan Stif"},
  {
    "Semestre": 3,
    "Grupo": "Cv",
    "Matricula": 42303199,
    "Nombre": "Herrera Gonzalez Daniela Lupita"},
  {
    "Semestre": 3,
    "Grupo": "Cv",
    "Matricula": 42302413,
    "Nombre": "Lopez Guerrero Dafne Anahi"},
  {
    "Semestre": 3,
    "Grupo": "Cv",
    "Matricula": 42303253,
    "Nombre": "Lugo Muro Aany Leilany"},
  {
    "Semestre": 3,
    "Grupo": "Cv",
    "Matricula": 42303211,
    "Nombre": "Maldonado Sanchez Miriam Noemi"},
  {
    "Semestre": 3,
    "Grupo": "Cv",
    "Matricula": 42303217,
    "Nombre": "Marquez Muñoz Cristian Uriel"},
  {
    "Semestre": 3,
    "Grupo": "Cv",
    "Matricula": 42302338,
    "Nombre": "Montoya Caldera Marely Guadalupe"},
  {
    "Semestre": 3,
    "Grupo": "Cv",
    "Matricula": 42304745,
    "Nombre": "Moreno Sosa Frida Sofia"},
  {
    "Semestre": 3,
    "Grupo": "Cv",
    "Matricula": 42303043,
    "Nombre": "Oliva Zeus Caleb"},
  {
    "Semestre": 3,
    "Grupo": "Cv",
    "Matricula": 42304789,
    "Nombre": "Perea Morelos Juan Jose"},
  {
    "Semestre": 3,
    "Grupo": "Cv",
    "Matricula": 42303849,
    "Nombre": "Torres Aguirre Jonathan De Jesus"},
  {
    "Semestre": 3,
    "Grupo": "Cv",
    "Matricula": 42205009,
    "Nombre": "Valdez Flores Miguel Angel Guadalupe*"},
  {
    "Semestre": 3,
    "Grupo": "Cv",
    "Matricula": 42303804,
    "Nombre": "Villegas Villegas Grecia Nahomi"},
  {
    "Semestre": 3,
    "Grupo": "Dv",
    "Matricula": 42104659,
    "Nombre": "Garcia Silva Gustavo Alberto"},
  {
    "Semestre": 3,
    "Grupo": "Dv",
    "Matricula": 42102683,
    "Nombre": "Martinez Flores Angel Francisco"},
  {
    "Semestre": 3,
    "Grupo": "Dv",
    "Matricula": 42102901,
    "Nombre": "Pacheco Estrella Jose David"},
  {
    "Semestre": 3,
    "Grupo": "Dv",
    "Matricula": 42206282,
    "Nombre": "Gaytan Martinez Axel Jared"},
  {
    "Semestre": 3,
    "Grupo": "Dv",
    "Matricula": 42204380,
    "Nombre": "Andrade Jilote Milagros Abigail"},
  {
    "Semestre": 3,
    "Grupo": "Dv",
    "Matricula": 42105402,
    "Nombre": "Araujo Rosales Cesar David"},
  {
    "Semestre": 3,
    "Grupo": "Dv",
    "Matricula": 42204603,
    "Nombre": "Barcenas Mercado Miguel"},
  {
    "Semestre": 3,
    "Grupo": "Dv",
    "Matricula": 20205341,
    "Nombre": "Calderon Martinez Abril Estefania"
  },
  {
    "Semestre": 3,
    "Grupo": "Dv",
    "Matricula": 42103686,
    "Nombre": "Carmona Ponce Jonathan Osvaldo"},
  {
    "Semestre": 3,
    "Grupo": "Dv",
    "Matricula": 42205300,
    "Nombre": "Davila Carrillo Cristobal Alejandro"},
  {
    "Semestre": 3,
    "Grupo": "Dv",
    "Matricula": 42205313,
    "Nombre": "De Loera Sanchez Jared"},
  {
    "Semestre": 3,
    "Grupo": "Dv",
    "Matricula": 42103030,
    "Nombre": "Garcia Chavez Vanessa"},
  {
    "Semestre": 3,
    "Grupo": "Dv",
    "Matricula": 42205326,
    "Nombre": "Guzman Guerrero Kevin Alexandro"},
  {
    "Semestre": 3,
    "Grupo": "Dv",
    "Matricula": 42205316,
    "Nombre": "Hernandez Lamas Leonardo Sebastian"},
  {
    "Semestre": 3,
    "Grupo": "Dv",
    "Matricula": 42203625,
    "Nombre": "Jimenez Raudales Michelle Alejandra"
  },
  {
    "Semestre": 3,
    "Grupo": "Dv",
    "Matricula": 42203613,
    "Nombre": "Loera Paniagua Alondra Sarahi"},
  {
    "Semestre": 3,
    "Grupo": "Dv",
    "Matricula": 20204052,
    "Nombre": "Martinez Almaraz Andrea Alejandra"},
  {
    "Semestre": 3,
    "Grupo": "Dv",
    "Matricula": 42208244,
    "Nombre": "Mauricio Galvan Fatima"},
  {
    "Semestre": 3,
    "Grupo": "Dv",
    "Matricula": 42205044,
    "Nombre": "Mauricio Gutierrez Rodolfo Emmanuel"},
  {
    "Semestre": 3,
    "Grupo": "Dv",
    "Matricula": 42205047,
    "Nombre": "Medina Bello Ailyn Suzette"},
  {
    "Semestre": 3,
    "Grupo": "Dv",
    "Matricula": 42205049,
    "Nombre": "Medina Gonzalez Abdiel Abimael"},
  {
    "Semestre": 3,
    "Grupo": "Dv",
    "Matricula": 42104395,
    "Nombre": "Montoya Carlos Angel Eduardo"},
  {
    "Semestre": 3,
    "Grupo": "Dv",
    "Matricula": 42204510,
    "Nombre": "Muñoz Del Real Barbara Anahi"},
  {
    "Semestre": 3,
    "Grupo": "Dv",
    "Matricula": 42302460,
    "Nombre": "Ramirez Lorenzana Amanda"},
  {
    "Semestre": 3,
    "Grupo": "Dv",
    "Matricula": 42107446,
    "Nombre": "Ramos Ruiz Oliver"},
  {
    "Semestre": 3,
    "Grupo": "Dv",
    "Matricula": 42201787,
    "Nombre": "Rivas Flores Rene Carlos"},
  {
    "Semestre": 3,
    "Grupo": "Dv",
    "Matricula": 42105366,
    "Nombre": "Rodriguez Gamboa Francisco Javier"},
  {
    "Semestre": 3,
    "Grupo": "Dv",
    "Matricula": 42203492,
    "Nombre": "Salazar Gonzalez Axel Gael"},
  {
    "Semestre": 3,
    "Grupo": "Dv",
    "Matricula": 42205018,
    "Nombre": "Solis Tiscareño Diego Oswaldo"},
  {
    "Semestre": 3,
    "Grupo": "Dv",
    "Matricula": 42205190,
    "Nombre": "Velazquez Davila Maria Carolina"},
  {
    "Semestre": 3,
    "Grupo": "Dv",
    "Matricula": 42208559,
    "Nombre": "Zamarron Juarez Lesly Aremi"
    
  }

]